{
   "plotOptions" : {
      "column" : {
         "stacking" : "percent"
      }
   },
   "title" : {
      "text" : "Perl Weekly Challenge [2019 - 2020]"
   },
   "series" : [
      {
         "data" : [
            0,
            4,
            6,
            11,
            12,
            4,
            0,
            4,
            0,
            0,
            70,
            40,
            14,
            7,
            8,
            66,
            3,
            0,
            46,
            2,
            0,
            0,
            0,
            0,
            94,
            3,
            7,
            0,
            67,
            0
         ],
         "name" : "Perl"
      },
      {
         "name" : "Raku",
         "data" : [
            0,
            0,
            0,
            0,
            0,
            0,
            0,
            0,
            2,
            0,
            67,
            40,
            0,
            0,
            8,
            0,
            0,
            93,
            0,
            0,
            0,
            28,
            2,
            8,
            0,
            0,
            0,
            0,
            0,
            0
         ]
      },
      {
         "data" : [
            0,
            1,
            0,
            0,
            0,
            0,
            0,
            0,
            0,
            0,
            60,
            16,
            0,
            4,
            0,
            0,
            0,
            1,
            0,
            0,
            0,
            0,
            0,
            0,
            0,
            1,
            0,
            0,
            0,
            0
         ],
         "name" : "Blog"
      }
   ],
   "yAxis" : {
      "title" : {
         "text" : ""
      },
      "min" : 0
   },
   "subtitle" : {
      "text" : "[Champions: 30] Last updated at 2021-01-24 12:57:19 GMT"
   },
   "chart" : {
      "type" : "column"
   },
   "xAxis" : {
      "categories" : [
         "Matthew O. Persico",
         "Matthew Somerville",
         "Max Kossek",
         "Maxim Kolodyazhny",
         "Maxim Nechaev",
         "Michael Hamlin",
         "Michael Schaap",
         "Miguel Prz",
         "Mihail Iosilevitch",
         "Mike Accardo",
         "Mohammad S Anwar",
         "Myoungjin Jeon",
         "Nazareno Delucca",
         "Neil Bowers",
         "Nick Logan",
         "Niels van Dijke",
         "Nikhil Prasanna",
         "Noud Aldenhoven",
         "Nuno Vieira",
         "Oleksii Tsvietnov",
         "Olli-Antti Kivilahti",
         "Ozzy",
         "P6steve",
         "PJ Durai",
         "Paulo Custodio",
         "Pavel Jurca",
         "Pavel Kuptsov",
         "Pavel Starikov",
         "Pete Houston",
         "Pete Sergeant"
      ]
   },
   "tooltip" : {
      "pointFormat" : "<span style=\"color:{series.color}\">{series.name}</span>: <b>{point.y}</b><br/>",
      "shared" : 1
   }
}
