{
   "yAxis" : {
      "title" : {
         "text" : "Total Solutions"
      }
   },
   "legend" : {
      "enabled" : 0
   },
   "plotOptions" : {
      "series" : {
         "borderWidth" : 0,
         "dataLabels" : {
            "enabled" : 1,
            "format" : "{point.y}"
         }
      }
   },
   "title" : {
      "text" : "Perl Weekly Challenge - 096"
   },
   "series" : [
      {
         "colorByPoint" : 1,
         "data" : [
            {
               "y" : 3,
               "name" : "Aaron Smith",
               "drilldown" : "Aaron Smith"
            },
            {
               "y" : 4,
               "name" : "Abigail",
               "drilldown" : "Abigail"
            },
            {
               "drilldown" : "Adam Russell",
               "name" : "Adam Russell",
               "y" : 3
            },
            {
               "drilldown" : "Andrew Shitov",
               "y" : 1,
               "name" : "Andrew Shitov"
            },
            {
               "drilldown" : "Arne Sommer",
               "name" : "Arne Sommer",
               "y" : 5
            },
            {
               "drilldown" : "Athanasius",
               "y" : 4,
               "name" : "Athanasius"
            },
            {
               "y" : 2,
               "name" : "Ben Davies",
               "drilldown" : "Ben Davies"
            },
            {
               "drilldown" : "Cheok-Yin Fung",
               "y" : 2,
               "name" : "Cheok-Yin Fung"
            },
            {
               "y" : 3,
               "name" : "Dave Jacoby",
               "drilldown" : "Dave Jacoby"
            },
            {
               "y" : 2,
               "name" : "E. Choroba",
               "drilldown" : "E. Choroba"
            },
            {
               "drilldown" : "Flavio Poletti",
               "name" : "Flavio Poletti",
               "y" : 4
            },
            {
               "y" : 2,
               "name" : "Gustavo Chaves",
               "drilldown" : "Gustavo Chaves"
            },
            {
               "drilldown" : "James Smith",
               "y" : 2,
               "name" : "James Smith"
            },
            {
               "drilldown" : "Jan Krnavek",
               "y" : 2,
               "name" : "Jan Krnavek"
            },
            {
               "drilldown" : "Joan Mimosinnet",
               "y" : 3,
               "name" : "Joan Mimosinnet"
            },
            {
               "drilldown" : "Jorg Sommrey",
               "name" : "Jorg Sommrey",
               "y" : 2
            },
            {
               "name" : "Kang-min Liu",
               "y" : 5,
               "drilldown" : "Kang-min Liu"
            },
            {
               "drilldown" : "Lance Wicks",
               "name" : "Lance Wicks",
               "y" : 2
            },
            {
               "name" : "Laurent Rosenfeld",
               "y" : 5,
               "drilldown" : "Laurent Rosenfeld"
            },
            {
               "y" : 2,
               "name" : "Lubos Kolouch",
               "drilldown" : "Lubos Kolouch"
            },
            {
               "name" : "Luca Ferrari",
               "y" : 4,
               "drilldown" : "Luca Ferrari"
            },
            {
               "y" : 2,
               "name" : "Mark Anderson",
               "drilldown" : "Mark Anderson"
            },
            {
               "drilldown" : "Nuno Vieira",
               "y" : 2,
               "name" : "Nuno Vieira"
            },
            {
               "name" : "Paulo Custodio",
               "y" : 2,
               "drilldown" : "Paulo Custodio"
            },
            {
               "y" : 2,
               "name" : "Pete Houston",
               "drilldown" : "Pete Houston"
            },
            {
               "name" : "Philip Hood",
               "y" : 2,
               "drilldown" : "Philip Hood"
            },
            {
               "drilldown" : "Roger Bell_West",
               "y" : 5,
               "name" : "Roger Bell_West"
            },
            {
               "drilldown" : "Simon Proctor",
               "name" : "Simon Proctor",
               "y" : 2
            },
            {
               "drilldown" : "Stuart Little",
               "y" : 4,
               "name" : "Stuart Little"
            },
            {
               "name" : "Ulrich Rieke",
               "y" : 4,
               "drilldown" : "Ulrich Rieke"
            },
            {
               "y" : 3,
               "name" : "W. Luis Mochan",
               "drilldown" : "W. Luis Mochan"
            },
            {
               "y" : 2,
               "name" : "Wanderdoc",
               "drilldown" : "Wanderdoc"
            }
         ],
         "name" : "Perl Weekly Challenge - 096"
      }
   ],
   "xAxis" : {
      "type" : "category"
   },
   "tooltip" : {
      "followPointer" : 1,
      "pointFormat" : "<span style='color:{point.color}'>{point.name}</span>: <b>{point.y:f}</b><br/>",
      "headerFormat" : "<span style='font-size:11px'>{series.name}</span><br/>"
   },
   "subtitle" : {
      "text" : "[Champions: 32] Last updated at 2021-01-24 12:57:20 GMT"
   },
   "drilldown" : {
      "series" : [
         {
            "id" : "Aaron Smith",
            "data" : [
               [
                  "Raku",
                  2
               ],
               [
                  "Blog",
                  1
               ]
            ],
            "name" : "Aaron Smith"
         },
         {
            "id" : "Abigail",
            "data" : [
               [
                  "Perl",
                  2
               ],
               [
                  "Blog",
                  2
               ]
            ],
            "name" : "Abigail"
         },
         {
            "id" : "Adam Russell",
            "name" : "Adam Russell",
            "data" : [
               [
                  "Perl",
                  2
               ],
               [
                  "Blog",
                  1
               ]
            ]
         },
         {
            "name" : "Andrew Shitov",
            "data" : [
               [
                  "Raku",
                  1
               ]
            ],
            "id" : "Andrew Shitov"
         },
         {
            "id" : "Arne Sommer",
            "name" : "Arne Sommer",
            "data" : [
               [
                  "Perl",
                  2
               ],
               [
                  "Raku",
                  2
               ],
               [
                  "Blog",
                  1
               ]
            ]
         },
         {
            "name" : "Athanasius",
            "data" : [
               [
                  "Perl",
                  2
               ],
               [
                  "Raku",
                  2
               ]
            ],
            "id" : "Athanasius"
         },
         {
            "id" : "Ben Davies",
            "name" : "Ben Davies",
            "data" : [
               [
                  "Raku",
                  2
               ]
            ]
         },
         {
            "id" : "Cheok-Yin Fung",
            "data" : [
               [
                  "Perl",
                  2
               ]
            ],
            "name" : "Cheok-Yin Fung"
         },
         {
            "data" : [
               [
                  "Perl",
                  2
               ],
               [
                  "Blog",
                  1
               ]
            ],
            "name" : "Dave Jacoby",
            "id" : "Dave Jacoby"
         },
         {
            "data" : [
               [
                  "Perl",
                  2
               ]
            ],
            "name" : "E. Choroba",
            "id" : "E. Choroba"
         },
         {
            "id" : "Flavio Poletti",
            "data" : [
               [
                  "Perl",
                  2
               ],
               [
                  "Blog",
                  2
               ]
            ],
            "name" : "Flavio Poletti"
         },
         {
            "id" : "Gustavo Chaves",
            "name" : "Gustavo Chaves",
            "data" : [
               [
                  "Perl",
                  2
               ]
            ]
         },
         {
            "id" : "James Smith",
            "name" : "James Smith",
            "data" : [
               [
                  "Perl",
                  2
               ]
            ]
         },
         {
            "id" : "Jan Krnavek",
            "name" : "Jan Krnavek",
            "data" : [
               [
                  "Raku",
                  2
               ]
            ]
         },
         {
            "name" : "Joan Mimosinnet",
            "data" : [
               [
                  "Raku",
                  2
               ],
               [
                  "Blog",
                  1
               ]
            ],
            "id" : "Joan Mimosinnet"
         },
         {
            "data" : [
               [
                  "Perl",
                  2
               ]
            ],
            "name" : "Jorg Sommrey",
            "id" : "Jorg Sommrey"
         },
         {
            "data" : [
               [
                  "Perl",
                  2
               ],
               [
                  "Raku",
                  2
               ],
               [
                  "Blog",
                  1
               ]
            ],
            "name" : "Kang-min Liu",
            "id" : "Kang-min Liu"
         },
         {
            "id" : "Lance Wicks",
            "data" : [
               [
                  "Perl",
                  1
               ],
               [
                  "Blog",
                  1
               ]
            ],
            "name" : "Lance Wicks"
         },
         {
            "id" : "Laurent Rosenfeld",
            "name" : "Laurent Rosenfeld",
            "data" : [
               [
                  "Perl",
                  2
               ],
               [
                  "Raku",
                  2
               ],
               [
                  "Blog",
                  1
               ]
            ]
         },
         {
            "data" : [
               [
                  "Perl",
                  2
               ]
            ],
            "name" : "Lubos Kolouch",
            "id" : "Lubos Kolouch"
         },
         {
            "data" : [
               [
                  "Raku",
                  2
               ],
               [
                  "Blog",
                  2
               ]
            ],
            "name" : "Luca Ferrari",
            "id" : "Luca Ferrari"
         },
         {
            "data" : [
               [
                  "Raku",
                  2
               ]
            ],
            "name" : "Mark Anderson",
            "id" : "Mark Anderson"
         },
         {
            "name" : "Nuno Vieira",
            "data" : [
               [
                  "Perl",
                  2
               ]
            ],
            "id" : "Nuno Vieira"
         },
         {
            "name" : "Paulo Custodio",
            "data" : [
               [
                  "Perl",
                  2
               ]
            ],
            "id" : "Paulo Custodio"
         },
         {
            "name" : "Pete Houston",
            "data" : [
               [
                  "Perl",
                  2
               ]
            ],
            "id" : "Pete Houston"
         },
         {
            "data" : [
               [
                  "Raku",
                  2
               ]
            ],
            "name" : "Philip Hood",
            "id" : "Philip Hood"
         },
         {
            "name" : "Roger Bell_West",
            "data" : [
               [
                  "Perl",
                  2
               ],
               [
                  "Raku",
                  2
               ],
               [
                  "Blog",
                  1
               ]
            ],
            "id" : "Roger Bell_West"
         },
         {
            "id" : "Simon Proctor",
            "data" : [
               [
                  "Raku",
                  2
               ]
            ],
            "name" : "Simon Proctor"
         },
         {
            "name" : "Stuart Little",
            "data" : [
               [
                  "Perl",
                  2
               ],
               [
                  "Raku",
                  2
               ]
            ],
            "id" : "Stuart Little"
         },
         {
            "name" : "Ulrich Rieke",
            "data" : [
               [
                  "Perl",
                  2
               ],
               [
                  "Raku",
                  2
               ]
            ],
            "id" : "Ulrich Rieke"
         },
         {
            "data" : [
               [
                  "Perl",
                  2
               ],
               [
                  "Blog",
                  1
               ]
            ],
            "name" : "W. Luis Mochan",
            "id" : "W. Luis Mochan"
         },
         {
            "name" : "Wanderdoc",
            "data" : [
               [
                  "Perl",
                  2
               ]
            ],
            "id" : "Wanderdoc"
         }
      ]
   },
   "chart" : {
      "type" : "column"
   }
}
